<svg width="16" height="16" viewBox="0 0 16 16" fill="none" xmlns="http://www.w3.org/2000/svg">
<g clip-path="url(#clip0)">
<path fill-rule="evenodd" clip-rule="evenodd" d="M7.03409 13.9117C7.11409 14.0141 7.23473 14.073 7.36465 14.073C7.42993 14.073 7.49585 14.0586 7.56273 14.0291L8.06161 13.8061C8.43729 13.6387 8.83345 13.1283 9.01521 12.7341L11.396 7.58274C15.9503 5.45026 16.1624 4.99682 15.964 4.5501C15.7352 4.03842 14.9176 3.52002 13.7983 3.52002C13.2443 3.52002 12.6802 3.6461 12.1215 3.89474L3.08049 7.92738C3.05393 7.93954 3.03153 7.9453 3.01233 7.9453C2.93713 7.9453 2.80689 7.84898 2.69137 7.76322C2.25873 7.44482 1.63057 6.98082 1.43313 6.82754C1.28401 6.7133 1.07761 6.65058 0.852013 6.65058C0.519533 6.65058 0.236333 6.78082 0.0948927 6.99874C-0.0206272 7.17634 -0.0315072 7.39202 0.0638527 7.60546L1.19537 10.1427C1.33329 10.4519 1.69041 10.8202 2.60625 10.8202C3.64881 10.8202 5.26801 10.344 7.28817 9.44354L7.71345 9.25346L6.97969 13.1629C6.89201 13.5143 6.90929 13.752 7.03409 13.9117ZM5.01203 6.36576L3.53747 5.47232C3.32147 5.35776 3.01491 5.1584 3.02515 4.84928C3.03123 4.68384 3.13299 4.54144 3.29747 4.46816L3.79731 4.24544C3.99827 4.15584 4.25523 4.13696 4.43539 4.13696C4.70771 4.13696 4.99059 4.17792 5.23251 4.25216L7.91283 5.07168L5.01203 6.36576Z" fill="#0070A6"/>
</g>
<defs>
<clipPath id="clip0">
<rect width="16" height="16" fill="white"/>
</clipPath>
</defs>
</svg>
