<svg width="24" height="16" viewBox="0 0 24 16" fill="none" xmlns="http://www.w3.org/2000/svg">
<path fill-rule="evenodd" clip-rule="evenodd" d="M16.3201 1.67551C15.4212 2.06437 14.2675 2.56306 13.2091 3.01945L8.03565 1.48516C7.65046 1.37158 7.23943 1.32303 6.85652 1.31744C6.47805 1.3119 6.10096 1.34195 5.73808 1.49695L5.00719 1.80713L5.00541 1.80789C4.86037 1.87053 4.62699 1.99416 4.4988 2.26954C4.37247 2.54093 4.4115 2.85025 4.51843 3.0592C4.69765 3.40944 4.98797 3.58757 5.29756 3.74897L5.30629 3.75739L7.9188 5.29068C6.53855 5.88645 4.97624 6.56166 4.71572 6.67455C4.71126 6.67246 4.70589 6.66984 4.69956 6.66659C4.6811 6.65712 4.65749 6.64386 4.62854 6.62627C4.57055 6.59102 4.4978 6.54241 4.41228 6.48097L4.41115 6.48016C4.19917 6.32932 3.95535 6.15688 3.71436 5.98644C3.22804 5.64249 2.75276 5.30633 2.57455 5.17277L2.57243 5.17121C2.05272 4.78866 1.44679 4.79699 0.939512 4.95676C0.682055 5.03817 0.378749 5.1875 0.174843 5.50649C-0.0343146 5.8337 -0.0561112 6.28461 0.111037 6.64502C0.257881 6.96308 0.552727 7.59215 0.861916 8.25183L0.92481 8.38602C1.2568 9.09437 1.59497 9.81626 1.77819 10.2137C2.02493 10.7486 2.5299 11.0946 3.1057 11.2419C3.671 11.3865 4.33059 11.3759 5.07899 11.2769C6.58539 11.0758 8.58804 10.4514 11.0827 9.37847L11.1802 9.33653L10.2031 14.3161V14.336C10.1209 14.6644 10.0607 15 10.2116 15.3651L10.2125 15.3673C10.3057 15.5879 10.5205 15.806 10.7976 15.8924C11.0733 15.9784 11.3086 15.9235 11.474 15.8545L12.2068 15.5435L12.2082 15.5429C12.5724 15.3863 12.8566 15.1216 13.1043 14.8459C13.3575 14.5641 13.5986 14.2244 13.7671 13.8703L13.9747 13.4342H13.9614L17.1847 6.70698C18.8852 5.9376 20.5206 5.16984 21.7251 4.51395C22.3556 4.16999 22.8857 3.8508 23.2702 3.55782C23.4649 3.40946 23.6281 3.26278 23.7686 3.07434C23.9053 2.89107 24.1186 2.50675 23.9179 2.07262C23.5702 1.32188 22.7329 0.820147 21.707 0.577825C21.3144 0.485974 20.8947 0.435463 20.4339 0.442882C20.277 0.444827 20.1101 0.458111 19.9572 0.472326C19.3182 0.529579 18.6193 0.682854 17.9049 0.989496L16.3201 1.67551ZM4.67157 8.09221C4.90127 8.1739 4.98243 8.20277 5.26263 8.08116L5.30523 8.06709C5.35481 8.04607 5.65166 7.91753 6.10036 7.72322L6.1013 7.72282C6.97634 7.34389 8.42812 6.71523 9.75009 6.14612C9.75009 6.14612 11.1666 5.54025 11.765 5.28227C12.2034 5.09326 12.6562 4.89806 13.4036 4.57671L13.4051 4.57626L13.8041 4.40811C14.8678 3.95136 16.0391 3.44888 16.949 3.05864L18.5259 2.38247C19.0898 2.14072 19.6268 2.01162 20.0994 1.96872C20.2146 1.9591 20.3261 1.95577 20.4385 1.95577C20.7717 1.95577 21.0774 1.99676 21.3485 2.06052C21.7442 2.15361 22.0295 2.30406 22.2159 2.4409C21.9375 2.64035 21.5145 2.89791 20.9801 3.18823C19.7791 3.84167 18.0793 4.64326 16.2928 5.44845L16.0287 5.56426L15.9076 5.82113L12.3539 13.2407L12.3533 13.2418C12.2582 13.4425 12.112 13.6646 11.9491 13.8453C11.9138 13.8844 11.8769 13.9213 11.8403 13.9553L12.9573 8.21353L13.2515 6.79503L11.8941 7.3795C11.6757 7.47379 11.4633 7.56607 11.2568 7.65576C10.9821 7.77512 10.7172 7.89019 10.4613 7.99999C8.03434 9.04309 6.15545 9.61429 4.8817 9.78345C4.24543 9.86893 3.77822 9.8456 3.50545 9.77613C3.36411 9.74013 3.28958 9.70268 3.24902 9.67369C3.21429 9.64887 3.1962 9.62468 3.18034 9.59055L2.91247 9.27231C2.66176 8.73149 2.31182 8.06363 2.01063 7.48879C1.77946 7.04759 1.57699 6.66117 1.47014 6.42908L1.46372 6.41513C1.45863 6.40284 1.4553 6.40255 1.45252 6.4023L1.4491 6.40103C1.46555 6.38869 1.49663 6.37105 1.53685 6.35871C1.56224 6.35064 1.591 6.34542 1.6216 6.34248C1.62862 6.34181 1.63574 6.34125 1.64294 6.34081C1.67082 6.33909 1.69987 6.33907 1.729 6.34032C1.74141 6.34086 1.75384 6.34163 1.76619 6.3426C1.86258 6.35016 1.95484 6.36993 2.00335 6.38692C2.01303 6.39031 2.02096 6.39359 2.02684 6.39664C2.02978 6.39817 2.03221 6.39963 2.03408 6.40103V6.38692L2.05305 6.40103C2.12391 6.45365 2.22224 6.52577 2.33916 6.61097C2.55105 6.76538 2.85526 6.9595 3.16704 7.15846C3.46658 7.34961 3.77317 7.54525 4.01157 7.71441L4.06644 7.75353C4.23553 7.87443 4.4112 8.00003 4.64043 8.08116L4.67157 8.09221ZM6.83187 2.83026C7.09422 2.83526 7.37144 2.8671 7.58419 2.93047L11.0443 3.94768L10.5829 4.14585C10.3323 4.25342 10.074 4.36427 9.66663 4.53967L6.74769 2.83033C6.77527 2.82977 6.80341 2.82972 6.83187 2.83026Z" fill="#0070A6"/>
</svg>
