<svg width="16" height="16" viewBox="0 0 16 16" fill="none" xmlns="http://www.w3.org/2000/svg">
<path fill-rule="evenodd" clip-rule="evenodd" d="M6.45844 12.0269C5.62054 12.0269 5.00063 11.7068 4.66683 11.298L5.17093 10.6509C5.4843 10.9779 5.98159 11.1686 6.42438 11.1686C6.97617 11.1686 7.28272 10.9302 7.28272 10.5896C7.28272 10.2285 7.00342 10.065 6.36988 10.065C6.17914 10.065 5.87259 10.0718 5.80447 10.0786V9.20667C5.88622 9.21348 6.19958 9.21349 6.36988 9.21349C6.87399 9.21349 7.20779 9.06362 7.20779 8.72982C7.20779 8.36877 6.83993 8.19165 6.36307 8.19165C5.92709 8.19165 5.53198 8.35515 5.21181 8.6617L4.72814 8.05541C5.096 7.63986 5.66823 7.33331 6.46526 7.33331C7.52796 7.33331 8.18193 7.81017 8.18193 8.56632C8.18193 9.13855 7.69145 9.51322 7.18735 9.60178C7.65058 9.64947 8.25006 10.0105 8.25006 10.6917C8.25006 11.4751 7.5484 12.0269 6.45844 12.0269Z" fill="#0070A6"/>
<path fill-rule="evenodd" clip-rule="evenodd" d="M11.3335 11.9451H10.3661V8.64801L9.60998 9.4178L9.05819 8.83876L10.4888 7.40138H11.3335V11.9451Z" fill="#0070A6"/>
<path fill-rule="evenodd" clip-rule="evenodd" d="M13.3335 3.33331H2.66683V13.3333H13.3335V3.33331ZM2.66683 1.99998C1.93045 1.99998 1.3335 2.59693 1.3335 3.33331V13.3333C1.3335 14.0697 1.93045 14.6666 2.66683 14.6666H13.3335C14.0699 14.6666 14.6668 14.0697 14.6668 13.3333V3.33331C14.6668 2.59693 14.0699 1.99998 13.3335 1.99998L12 1.99998V1H11V1.99998H5V1H4V1.99998L2.66683 1.99998Z" fill="#0070A6"/>
<path fill-rule="evenodd" clip-rule="evenodd" d="M2.66683 4.66665H13.3335V5.99998H2.66683V4.66665Z" fill="#0070A6"/>
</svg>
