<svg width="12" height="12" viewBox="0 0 12 12" fill="none" xmlns="http://www.w3.org/2000/svg">
<circle cx="6" cy="6" r="6" fill="#00CCA6"/>
<path fill-rule="evenodd" clip-rule="evenodd" d="M8.76747 3.63715C9.02921 3.84036 9.07666 4.21729 8.87344 4.47903L5.55219 8.75681C5.44462 8.89537 5.2818 8.97991 5.10658 8.98818C4.93136 8.99646 4.76129 8.92765 4.64113 8.79985L3.16238 7.22704C2.9354 6.98562 2.9471 6.6059 3.18852 6.37892C3.42994 6.15193 3.80966 6.16364 4.03665 6.40506L5.0347 7.46659L7.92559 3.74312C8.1288 3.48138 8.50573 3.43393 8.76747 3.63715Z" fill="white"/>
</svg>
