<svg width="24" height="24" viewBox="0 0 24 24" fill="none" xmlns="http://www.w3.org/2000/svg">
    <path fill-rule="evenodd" clip-rule="evenodd" d="M5 1C2.79086 1 1 2.79087 1 5V14.5556C1 16.7647 2.79086 18.5556 5 18.5556H8.16667L11.12 22.4933C11.56 23.08 12.44 23.08 12.88 22.4933L15.8333 18.5556L19 18.5556C21.2091 18.5556 23 16.7647 23 14.5556V5C23 2.79086 21.2091 1 19 1H5ZM3 5C3 3.89543 3.89543 3 5 3H19C20.1046 3 21 3.89543 21 5V14.5556C21 15.6601 20.1046 16.5556 19 16.5556H15.8333C15.2038 16.5556 14.611 16.8519 14.2333 17.3556L12 20.3333L9.76667 17.3556C9.38896 16.8519 8.79618 16.5556 8.16667 16.5556H5C3.89543 16.5556 3 15.6601 3 14.5556V5ZM8 11C8.55228 11 9 10.5523 9 10C9 9.44771 8.55228 9 8 9C7.44772 9 7 9.44771 7 10C7 10.5523 7.44772 11 8 11ZM13 10C13 10.5523 12.5523 11 12 11C11.4477 11 11 10.5523 11 10C11 9.44771 11.4477 9 12 9C12.5523 9 13 9.44771 13 10ZM16 11C16.5523 11 17 10.5523 17 10C17 9.44771 16.5523 9 16 9C15.4477 9 15 9.44771 15 10C15 10.5523 15.4477 11 16 11Z" fill="#0070A6"/>
</svg>
