<svg width="24" height="24" viewBox="0 0 24 24" fill="none" xmlns="http://www.w3.org/2000/svg">
    <path fill-rule="evenodd" clip-rule="evenodd" d="M5 5C4.44772 5 4 5.44772 4 6V18C4 18.5523 4.44772 19 5 19H19C19.5523 19 20 18.5523 20 18V10.2667C20 9.71438 19.5523 9.26667 19 9.26667H12.0387C11.0619 9.26667 10.1464 8.79118 9.58456 7.9922L7.77938 5.42482C7.59212 5.15849 7.28692 5 6.96135 5H5ZM2 6C2 4.34315 3.34315 3 5 3H6.96135C7.93807 3 8.85365 3.47548 9.41544 4.27447L11.2206 6.84184C11.4079 7.10817 11.7131 7.26667 12.0387 7.26667H19C20.6569 7.26667 22 8.60981 22 10.2667V18C22 19.6569 20.6569 21 19 21H5C3.34315 21 2 19.6569 2 18V6Z" fill="#0070A6"/>
    <path fill-rule="evenodd" clip-rule="evenodd" d="M19 6H8.5V4H19C20.6569 4 22 5.34315 22 7V16H20V7C20 6.44772 19.5523 6 19 6Z" fill="#0070A6"/>
    <path fill-rule="evenodd" clip-rule="evenodd" d="M8 13V15H11V13H8ZM7 11C6.44772 11 6 11.4477 6 12V16C6 16.5523 6.44772 17 7 17H12C12.5523 17 13 16.5523 13 16V12C13 11.4477 12.5523 11 12 11H7Z" fill="#0070A6"/>
</svg>
