<svg width="24" height="24" viewBox="0 0 24 24" fill="none" xmlns="http://www.w3.org/2000/svg">
<path d="M17.7155 2C16.6177 1.99994 15.5196 2.41834 14.6837 3.25401L12.3022 5.63552C11.1153 6.82246 10.7761 8.53646 11.2752 10.0301L12.986 8.31936C13.0574 7.8302 13.2735 7.35836 13.6493 6.98256L16.0308 4.60105C16.4952 4.13713 17.1058 3.90427 17.7155 3.90427C18.3252 3.90427 18.9354 4.13666 19.3993 4.60105C20.3276 5.52984 20.3276 7.04034 19.3993 7.96865L17.0178 10.3502C16.642 10.726 16.1706 10.9415 15.681 11.0134L13.9693 12.7252C14.4113 12.8728 14.8715 12.9512 15.3331 12.9512C16.4309 12.9512 17.5289 12.5331 18.3648 11.6972L20.7463 9.31569C22.4181 7.64435 22.4177 4.92535 20.7463 3.25401C19.9104 2.41858 18.8132 2.00006 17.7155 2ZM14.8391 8.18075C14.5916 8.18813 14.3567 8.29156 14.1842 8.46914L8.4686 14.1848C8.37718 14.2725 8.30418 14.3777 8.2539 14.494C8.20362 14.6103 8.17705 14.7356 8.17576 14.8623C8.17447 14.989 8.19848 15.1147 8.24639 15.2321C8.29429 15.3494 8.36513 15.456 8.45475 15.5456C8.54437 15.6353 8.65097 15.7061 8.76831 15.754C8.88565 15.8019 9.01137 15.8259 9.1381 15.8246C9.26484 15.8233 9.39004 15.7968 9.50638 15.7465C9.62272 15.6962 9.72786 15.6232 9.81563 15.5318L15.5312 9.81618C15.6689 9.68237 15.7629 9.5101 15.801 9.32194C15.839 9.13379 15.8194 8.93852 15.7445 8.76173C15.6697 8.58494 15.5432 8.43488 15.3817 8.33121C15.2201 8.22754 15.031 8.17509 14.8391 8.18075ZM8.87978 11.059C7.71186 10.9996 6.52555 11.4126 5.63499 12.3028L3.2535 14.6843C1.58217 16.3557 1.58217 19.0756 3.2535 20.7469C4.0894 21.5823 5.18693 22 6.28432 22C7.38172 22 8.47924 21.5819 9.31515 20.746L11.6966 18.3645C12.8836 17.1775 13.2238 15.4635 12.7246 13.9699L11.0129 15.6816C10.9414 16.1707 10.7254 16.6426 10.3496 17.0184L7.96811 19.3999C7.03981 20.3287 5.52884 20.3287 4.60053 19.3999C3.67223 18.4711 3.67223 16.9606 4.60053 16.0323L6.98203 13.6508C7.35783 13.275 7.82967 13.0585 8.31883 12.9866L10.0296 11.2758C9.65618 11.151 9.26909 11.0788 8.87978 11.059Z" fill="#0070A6"/>
</svg>
