<svg width="24" height="24" viewBox="0 0 24 24" fill="none" xmlns="http://www.w3.org/2000/svg">
    <path fill-rule="evenodd" clip-rule="evenodd" d="M16 11C16.5523 11 17 11.4477 17 12C17 12.5523 16.5523 13 16 13H8C7.44772 13 7 12.5523 7 12C7 11.4477 7.44772 11 8 11H16Z" fill="#0070A6"/>
    <path fill-rule="evenodd" clip-rule="evenodd" d="M12 22C17.5235 22 22 17.5227 22 12C22 6.47733 17.5235 2 12 2C6.47651 2 2 6.47733 2 12C2 17.5227 6.47651 22 12 22ZM12 24C18.6282 24 24 18.6271 24 12C24 5.37287 18.6282 0 12 0C5.37183 0 0 5.37287 0 12C0 18.6271 5.37183 24 12 24Z" fill="#0070A6"/>
</svg>
