<svg width="24" height="24" viewBox="0 0 24 24" fill="none" xmlns="http://www.w3.org/2000/svg">
    <path d="M21 10.2546C22.3333 11.0303 22.3333 12.9697 21 13.7454L9 20.727C7.66667 21.5027 6 20.533 6 18.9816L6 5.01842C6 3.46695 7.66667 2.49729 9 3.27302L21 10.2546Z" fill="#0070A6"/>
</svg>
