<svg width="54" height="24" viewBox="0 0 54 24" fill="none" xmlns="http://www.w3.org/2000/svg">
<path d="M30 8H28V14C28 14.6 27.6 15 27 15C26.4 15 26 14.6 26 14V8H24C23.4 8 23 7.6 23 7C23 6.4 23.4 6 24 6H30C30.6 6 31 6.4 31 7C31 7.5 30.6 8 30 8Z" fill="#0070A6"/>
<path d="M47 24C45.3 24 44 22.7 44 21C44 19.3 45.3 18 47 18C48.7 18 50 19.3 50 21C50 22.7 48.7 24 47 24ZM47 20C46.4 20 46 20.4 46 21C46 21.6 46.4 22 47 22C47.6 22 48 21.6 48 21C48 20.4 47.6 20 47 20Z" fill="#0070A6"/>
<path d="M39 24C37.3 24 36 22.7 36 21C36 19.3 37.3 18 39 18C40.7 18 42 19.3 42 21C42 22.7 40.7 24 39 24ZM39 20C38.4 20 38 20.4 38 21C38 21.6 38.4 22 39 22C39.6 22 40 21.6 40 21C40 20.4 39.6 20 39 20Z" fill="#0070A6"/>
<path d="M45 20H41V22H45V20Z" fill="#0070A6"/>
<path d="M15 24C13.3 24 12 22.7 12 21C12 19.3 13.3 18 15 18C16.7 18 18 19.3 18 21C18 22.7 16.7 24 15 24ZM15 20C14.4 20 14 20.4 14 21C14 21.6 14.4 22 15 22C15.6 22 16 21.6 16 21C16 20.4 15.6 20 15 20Z" fill="#0070A6"/>
<path d="M7 24C5.3 24 4 22.7 4 21C4 19.3 5.3 18 7 18C8.7 18 10 19.3 10 21C10 22.7 8.7 24 7 24ZM7 20C6.4 20 6 20.4 6 21C6 21.6 6.4 22 7 22C7.6 22 8 21.6 8 21C8 20.4 7.6 20 7 20Z" fill="#0070A6"/>
<path d="M13 20H9V22H13V20Z" fill="#0070A6"/>
<path d="M52 19H2C1.4 19 1 18.6 1 18V5C1 4.4 1.4 4 2 4H18C18.6 4 19 4.4 19 5C19 5.6 18.6 6 18 6H3V17H51V5C51 4.4 51.4 4 52 4C52.6 4 53 4.4 53 5V18C53 18.5 52.6 19 52 19Z" fill="#0070A6"/>
<path d="M53 5C52.4 5 52 4.6 52 4V3C52 2.4 51.6 2 51 2H3C2.4 2 2 2.4 2 3V4C2 4.6 1.6 5 1 5C0.4 5 0 4.6 0 4V3C0 1.3 1.3 0 3 0H51C52.7 0 54 1.3 54 3V4C54 4.5 53.6 5 53 5Z" fill="#0070A6"/>
<path d="M18 10H2C1.4 10 1 9.6 1 9C1 8.4 1.4 8 2 8H18C18.6 8 19 8.4 19 9C19 9.6 18.6 10 18 10Z" fill="#0070A6"/>
<path d="M18 14H2C1.4 14 1 13.6 1 13C1 12.4 1.4 12 2 12H18C18.6 12 19 12.4 19 13C19 13.5 18.6 14 18 14Z" fill="#0070A6"/>
<path d="M52 10H36C35.4 10 35 9.6 35 9C35 8.4 35.4 8 36 8H52C52.6 8 53 8.4 53 9C53 9.6 52.6 10 52 10Z" fill="#0070A6"/>
<path d="M46 6H36C35.4 6 35 5.6 35 5C35 4.4 35.4 4 36 4H46C46.6 4 47 4.4 47 5C47 5.6 46.6 6 46 6Z" fill="#0070A6"/>
<path d="M52 6H50C49.4 6 49 5.6 49 5C49 4.4 49.4 4 50 4H52C52.6 4 53 4.4 53 5C53 5.6 52.6 6 52 6Z" fill="#0070A6"/>
<path d="M52 14H36C35.4 14 35 13.6 35 13C35 12.4 35.4 12 36 12H52C52.6 12 53 12.4 53 13C53 13.5 52.6 14 52 14Z" fill="#0070A6"/>
</svg>
