<svg width="25" height="24" viewBox="0 0 25 24" fill="none" xmlns="http://www.w3.org/2000/svg">
<path fill-rule="evenodd" clip-rule="evenodd" d="M12.9759 22C18.4952 22 22.9683 17.5227 22.9683 12C22.9683 6.47733 18.4952 2 12.9759 2C7.45655 2 2.98342 6.47733 2.98342 12C2.98342 17.5227 7.45655 22 12.9759 22ZM12.9759 24C19.5991 24 24.9668 18.6271 24.9668 12C24.9668 5.37287 19.5991 0 12.9759 0C6.3527 0 0.984924 5.37287 0.984924 12C0.984924 18.6271 6.3527 24 12.9759 24Z" fill="#9DA0AC"/>
<path fill-rule="evenodd" clip-rule="evenodd" d="M10.1494 9.17157C8.58826 10.7339 8.58849 13.2664 10.1494 14.8284C10.5396 15.219 10.5396 15.8521 10.1494 16.2426C9.75913 16.6332 9.12645 16.6332 8.73622 16.2426C6.39496 13.8996 6.39457 10.1008 8.73622 7.75736C9.12645 7.36684 9.75913 7.36684 10.1494 7.75736C10.5396 8.14788 10.5396 8.78105 10.1494 9.17157ZM15.802 7.75736C16.1922 7.36684 16.8249 7.36684 17.2151 7.75736C19.5564 10.1004 19.5567 13.8992 17.2151 16.2426C16.8249 16.6332 16.1922 16.6332 15.802 16.2426C15.4117 15.8521 15.4117 15.219 15.802 14.8284C17.3631 13.2661 17.3628 10.7336 15.802 9.17157C15.4117 8.78105 15.4117 8.14788 15.802 7.75736Z" fill="#9DA0AC"/>
<path d="M11.5898 9.66601C11.5152 10.0718 11.0093 10.2176 10.7304 9.9137L8.15786 7.10979C7.87959 6.80649 8.06641 6.31544 8.47576 6.27414L11.6222 5.95669C11.9533 5.92328 12.2239 6.21709 12.1637 6.54464L11.5898 9.66601Z" fill="#9DA0AC"/>
<path d="M14.4203 14.3754C14.4941 13.9694 14.9997 13.8226 15.2792 14.1259L17.8627 16.9303C18.1416 17.233 17.9558 17.7244 17.5465 17.7666L14.3943 18.0911C14.0633 18.1252 13.7921 17.8319 13.8516 17.5042L14.4203 14.3754Z" fill="#9DA0AC"/>
</svg>
