<svg width="24" height="24" viewBox="0 0 24 24" fill="none" xmlns="http://www.w3.org/2000/svg">
<circle cx="12" cy="12" r="9" fill="#FFB137"/>
<path d="M13.9658 13.0566H14.8521V14.3081H13.9658V16H12.4136V14.3081H9.20703L9.13721 13.3306L12.3975 8.17969H13.9658V13.0566ZM10.6841 13.0566H12.4136V10.2959L12.3115 10.4731L10.6841 13.0566Z" fill="black"/>
</svg>
