<svg width="24" height="24" viewBox="0 0 24 24" fill="none" xmlns="http://www.w3.org/2000/svg">
<circle cx="12" cy="12" r="9" fill="#10CF96"/>
<path d="M13.144 16H11.5918V10.0166L9.73877 10.5913V9.3291L12.9775 8.16895H13.144V16Z" fill="black"/>
</svg>
