<svg width="24" height="24" viewBox="0 0 24 24" fill="none" xmlns="http://www.w3.org/2000/svg">
    <path fill-rule="evenodd" clip-rule="evenodd" d="M20.9125 9.99535L18.7872 11.3975C17.3457 12.3485 15.4008 11.8891 14.5372 10.3935L11.9999 5.99951L9.46266 10.3935C8.59905 11.8891 6.65422 12.3485 5.21265 11.3975L3.08733 9.99535L5.1872 19H18.8127L20.9125 9.99535ZM12.8659 4.49982C12.8657 4.50018 12.8655 4.50055 12.8653 4.50092L12.8659 4.49982ZM2.09432 6.94421C1.33979 6.44643 0.364478 7.12572 0.569765 8.00602L3.4197 20.2271C3.52526 20.6798 3.92878 21 4.39357 21H19.6063C20.0711 21 20.4746 20.6798 20.5802 20.2271L23.4301 8.00603C23.6354 7.12572 22.6601 6.44643 21.9056 6.94421L17.6859 9.72803C17.2053 10.045 16.5571 9.8919 16.2692 9.39338L12.8659 3.4997C12.481 2.83311 11.5189 2.83311 11.1339 3.49969L7.73068 9.39338C7.44281 9.8919 6.79453 10.045 6.31401 9.72803L2.09432 6.94421Z" fill="#0070A6"/>
</svg>
