<svg width="24" height="16" viewBox="0 0 24 16" fill="none" xmlns="http://www.w3.org/2000/svg">
<path fill-rule="evenodd" clip-rule="evenodd" d="M0 12C0 13.1046 0.89543 14 2 14H3.17071C3.58254 15.1652 4.69378 16 6 16C7.30622 16 8.41746 15.1652 8.82929 14H15.1707C15.5825 15.1652 16.6938 16 18 16C19.3062 16 20.4175 15.1652 20.8293 14H22C23.1046 14 24 13.1046 24 12V8.88474C24 8.32125 23.7623 7.7839 23.3453 7.40486L19.0721 3.52012C18.704 3.18544 18.2243 3 17.7268 3H15V2C15 0.895431 14.1046 0 13 0H2C0.895431 0 0 0.89543 0 2V12ZM20.8293 12H22V8.88474L17.7268 5H15V12H15.1707C15.5825 10.8348 16.6938 10 18 10C19.3062 10 20.4175 10.8348 20.8293 12ZM8.82929 12H13V2H2L2 12H3.17071C3.58254 10.8348 4.69378 10 6 10C7.30622 10 8.41746 10.8348 8.82929 12ZM6 14C6.55228 14 7 13.5523 7 13C7 12.4477 6.55228 12 6 12C5.44772 12 5 12.4477 5 13C5 13.5523 5.44772 14 6 14ZM18 14C18.5523 14 19 13.5523 19 13C19 12.4477 18.5523 12 18 12C17.4477 12 17 12.4477 17 13C17 13.5523 17.4477 14 18 14Z" fill="#E5EDF9"/>
</svg>
