<svg width="42" height="18" viewBox="0 0 42 18" fill="none" xmlns="http://www.w3.org/2000/svg">
<g clip-path="url(#clip0)">
<g opacity="0.5">
<path d="M14 9.75C14 10.2 14.3111 10.5 14.7778 10.5C15.2444 10.5 15.5556 10.125 15.5556 9.75V3.75C15.5556 3.3 15.2444 3 14.7778 3C14.3111 3 14 3.3 14 3.75V9.75Z" fill="#0070A6"/>
<path d="M18.6667 9.75C18.6667 10.2 18.9778 10.5 19.4444 10.5C19.9111 10.5 20.2222 10.125 20.2222 9.75V3.75C20.2222 3.3 19.9111 3 19.4444 3C18.9778 3 18.6667 3.3 18.6667 3.75V9.75Z" fill="#0070A6"/>
<path d="M9.33337 9.75C9.33337 10.2 9.64449 10.5 10.1111 10.5C10.5778 10.5 10.8889 10.125 10.8889 9.75V3.75C10.8889 3.3 10.5778 3 10.1111 3C9.64449 3 9.33337 3.3 9.33337 3.75V9.75Z" fill="#0070A6"/>
<path d="M4.66663 9.75C4.66663 10.2 4.97774 10.5 5.4444 10.5C5.91107 10.5 6.22218 10.125 6.22218 9.75V3.75C6.22218 3.3 5.91107 3 5.4444 3C4.97774 3 4.66663 3.3 4.66663 3.75V9.75Z" fill="#0070A6"/>
<path fill-rule="evenodd" clip-rule="evenodd" d="M20.6423 13.5H12.8026C13.0692 13.9419 13.2222 14.4546 13.2222 15C13.2222 16.65 11.8222 18 10.1111 18C8.4 18 7 16.65 7 15C7 16.65 5.6 18 3.88889 18C2.17778 18 0.777778 16.65 0.777778 15C0.777778 14.4546 0.930754 13.9419 1.19738 13.5H0.777778C0.311111 13.5 0 13.2 0 12.75V0.75C0 0.3 0.311111 0 0.777778 0H24.8889C25.3556 0 25.6667 0.3 25.6667 0.75V12H31.1115V3.75C31.1115 3.3 31.4227 3 31.8893 3C32.356 3 32.6671 3.3 32.6671 3.75V12.75C32.6671 13.125 32.356 13.5 31.8893 13.5H26.0253C26.2919 13.9419 26.4449 14.4546 26.4449 15H33.4449C33.4449 13.35 34.8449 12 36.556 12C38.1246 12 39.4318 13.1346 39.6386 14.5947C39.9816 14.566 40.2562 14.5205 40.4449 14.475V12.75C39.9782 12.75 39.6671 12.45 39.6671 12C39.6671 11.55 39.9782 11.25 40.4449 11.25V9.49529L37.1004 8.40001C36.7893 8.32501 36.556 8.02501 36.556 7.72501V6C36.556 5.55 36.8671 5.25 37.3338 5.25H39.8359C39.5859 4.01484 39.3232 3.04578 39.1227 2.77501C38.5004 2.25001 33.6004 1.5 31.8893 1.5C31.4227 1.5 31.1115 1.2 31.1115 0.75C31.1115 0.3 31.4227 0 31.8893 0C32.9004 0 39.0449 0.600014 40.2115 1.72501C41.0671 2.55001 41.6893 6.6 42.0004 8.925V15C42.0004 15.3 41.8449 15.525 41.5338 15.675C41.5201 15.675 41.4824 15.6889 41.4203 15.7118C41.1695 15.8043 40.5206 16.0436 39.4457 16.1085C38.9861 17.214 37.8616 18 36.556 18C35.4105 18 34.4044 17.395 33.8645 16.5H26.056L26.0445 16.4999L26.0316 16.4997L26.0255 16.4996C25.4856 17.3948 24.4794 18 23.3338 18C21.6227 18 20.2227 16.65 20.2227 15C20.2227 14.4546 20.3756 13.9419 20.6423 13.5ZM7 15C7 14.4546 6.84702 13.9419 6.5804 13.5H7.4196C7.15298 13.9419 7 14.4546 7 15ZM24.1111 12V1.5H1.55556V12H24.1111ZM23.3338 13.5C22.4782 13.5 21.7782 14.175 21.7782 15C21.7782 15.825 22.4782 16.5 23.3338 16.5C24.1893 16.5 24.8893 15.825 24.8893 15C24.8893 14.175 24.1893 13.5 23.3338 13.5ZM8.55556 15C8.55556 14.175 9.25556 13.5 10.1111 13.5C10.9667 13.5 11.6667 14.175 11.6667 15C11.6667 15.825 10.9667 16.5 10.1111 16.5C9.25556 16.5 8.55556 15.825 8.55556 15ZM3.88889 13.5C3.03333 13.5 2.33333 14.175 2.33333 15C2.33333 15.825 3.03333 16.5 3.88889 16.5C4.74444 16.5 5.44444 15.825 5.44444 15C5.44444 14.175 4.74444 13.5 3.88889 13.5ZM35.0004 15C35.0004 14.175 35.7004 13.5 36.556 13.5C37.4115 13.5 38.1115 14.175 38.1115 15C38.1115 15.825 37.4115 16.5 36.556 16.5C35.7004 16.5 35.0004 15.825 35.0004 15Z" fill="#0070A6"/>
</g>
</g>
<defs>
<clipPath id="clip0">
<rect width="42" height="18" fill="white"/>
</clipPath>
</defs>
</svg>
