<svg width="44" height="24" viewBox="0 0 44 24" fill="none" xmlns="http://www.w3.org/2000/svg">
<path d="M25 18H1C0.4 18 0 17.6 0 17V1C0 0.4 0.4 0 1 0H25C25.6 0 26 0.4 26 1V17C26 17.5 25.6 18 25 18ZM2 16H24V2H2V16Z" fill="#0070A6"/>
<path d="M5 24C2.8 24 1 22.2 1 20C1 17.8 2.8 16 5 16C7.2 16 9 17.8 9 20C9 22.2 7.2 24 5 24ZM5 18C3.9 18 3 18.9 3 20C3 21.1 3.9 22 5 22C6.1 22 7 21.1 7 20C7 18.9 6.1 18 5 18Z" fill="#0070A6"/>
<path d="M23 24C20.8 24 19 22.2 19 20C19 17.8 20.8 16 23 16C25.2 16 27 17.8 27 20C27 22.2 25.2 24 23 24ZM23 18C21.9 18 21 18.9 21 20C21 21.1 21.9 22 23 22C24.1 22 25 21.1 25 20C25 18.9 24.1 18 23 18Z" fill="#0070A6"/>
<path d="M11 24C8.8 24 7 22.2 7 20C7 17.8 8.8 16 11 16C13.2 16 15 17.8 15 20C15 22.2 13.2 24 11 24ZM11 18C9.9 18 9 18.9 9 20C9 21.1 9.9 22 11 22C12.1 22 13 21.1 13 20C13 18.9 12.1 18 11 18Z" fill="#0070A6"/>
<path d="M19 14C18.4 14 18 13.6 18 13V5C18 4.4 18.4 4 19 4C19.6 4 20 4.4 20 5V13C20 13.5 19.6 14 19 14Z" fill="#0070A6"/>
<path d="M13 14C12.4 14 12 13.6 12 13V5C12 4.4 12.4 4 13 4C13.6 4 14 4.4 14 5V13C14 13.5 13.6 14 13 14Z" fill="#0070A6"/>
<path d="M7 14C6.4 14 6 13.6 6 13V5C6 4.4 6.4 4 7 4C7.6 4 8 4.4 8 5V13C8 13.5 7.6 14 7 14Z" fill="#0070A6"/>
<path d="M37 24C34.8 24 33 22.2 33 20C33 17.8 34.8 16 37 16C39.2 16 41 17.8 41 20C41 22.2 39.2 24 37 24ZM37 18C35.9 18 35 18.9 35 20C35 21.1 35.9 22 37 22C38.1 22 39 21.1 39 20C39 18.9 38.1 18 37 18Z" fill="#0070A6"/>
<path d="M31 18H24C23.4 18 23 17.6 23 17C23 16.4 23.4 16 24 16H30V5C30 4.4 30.4 4 31 4C31.6 4 32 4.4 32 5V17C32 17.5 31.6 18 31 18Z" fill="#0070A6"/>
<path d="M40 21.5C39.4 21.5 39 21.1 39 20.5C39 19.9 39.4 19.5 40 19.5C40.9 19.5 41.6 19.4 42 19.3V12.1C41.6 8.60001 40.8 4.40001 40.3 3.70001C39.5 3.00001 33.2 2 31 2C30.4 2 30 1.6 30 1C30 0.4 30.4 0 31 0C32.3 0 40.2 0.800018 41.7 2.30002C42.8 3.40002 43.6 8.79999 44 11.9V20C44 20.4 43.8 20.7 43.4 20.9C43.3 20.9 42.2 21.5 40 21.5Z" fill="#0070A6"/>
<path d="M34 22H26C25.4 22 25 21.6 25 21C25 20.4 25.4 20 26 20H34C34.6 20 35 20.4 35 21C35 21.6 34.6 22 34 22Z" fill="#0070A6"/>
<path d="M43 13L37.7 11.2C37.3 11.1 37 10.7 37 10.3V8C37 7.4 37.4 7 38 7H42L43 13Z" fill="#0070A6"/>
<path d="M43 17H42C41.4 17 41 16.6 41 16C41 15.4 41.4 15 42 15H43C43.6 15 44 15.4 44 16C44 16.6 43.6 17 43 17Z" fill="#0070A6"/>
</svg>
