<svg width="24" height="24" viewBox="0 0 24 24" fill="none" xmlns="http://www.w3.org/2000/svg">
    <path d="M4.5 1.5V3H6V6C6 8.27344 7.28906 10.2305 9.1582 11.25C7.28906 12.2695 6 14.2266 6 16.5V19.5H4.5V21H19.5V19.5H18V16.5C18 14.2266 16.7109 12.2695 14.8418 11.25C16.7109 10.2305 18 8.27344 18 6V3H19.5V1.5H4.5ZM7.5 3H16.5V6C16.5 8.49609 14.4961 10.5 12 10.5C9.50391 10.5 7.5 8.49609 7.5 6V3ZM9 6C9 7.65234 10.3477 9 12 9C13.6523 9 15 7.65234 15 6H9ZM12 12C14.4961 12 16.5 14.0039 16.5 16.5V19.5H15V18C15 16.3477 13.6523 15 12 15C10.3477 15 9 16.3477 9 18V19.5H7.5V16.5C7.5 14.0039 9.50391 12 12 12Z" fill="#0070A6"/>
</svg>
