<svg width="24" height="24" viewBox="0 0 24 24" fill="none" xmlns="http://www.w3.org/2000/svg">
    <path d="M10 2C9.448 2 9 2.448 9 3C9 3.55228 8.55228 4 8 4H3C2.44772 4 2 4.44772 2 5C2 5.55228 2.44772 6 3 6H8C8.55228 6 9 6.44772 9 7C9 7.552 9.448 8 10 8H11C11.552 8 12 7.552 12 7V3C12 2.448 11.552 2 11 2H10ZM15 4C14.4477 4 14 4.44772 14 5C14 5.55228 14.4477 6 15 6H21C21.5523 6 22 5.55228 22 5C22 4.44772 21.5523 4 21 4H15ZM15 9C14.448 9 14 9.448 14 10C14 10.5523 13.5523 11 13 11H3C2.44772 11 2 11.4477 2 12C2 12.5523 2.44772 13 3 13H13C13.5523 13 14 13.4477 14 14C14 14.552 14.448 15 15 15H16C16.552 15 17 14.552 17 14V10C17 9.448 16.552 9 16 9H15ZM20 11C19.4477 11 19 11.4477 19 12C19 12.5523 19.4477 13 20 13H21C21.5523 13 22 12.5523 22 12C22 11.4477 21.5523 11 21 11H20ZM5 16C4.448 16 4 16.448 4 17C4 17.5523 3.55228 18 3 18C2.44772 18 2 18.4477 2 19C2 19.5523 2.44772 20 3 20C3.55228 20 4 20.4477 4 21C4 21.552 4.448 22 5 22H6C6.552 22 7 21.552 7 21V17C7 16.448 6.552 16 6 16H5ZM10 18C9.44772 18 9 18.4477 9 19C9 19.5523 9.44772 20 10 20H21C21.5523 20 22 19.5523 22 19C22 18.4477 21.5523 18 21 18H10Z" fill="#0070A6"/>
</svg>
