<svg width="51" height="24" viewBox="0 0 51 24" fill="none" xmlns="http://www.w3.org/2000/svg">
<path d="M43 24C40.8 24 39 22.2 39 20C39 17.8 40.8 16 43 16C45.2 16 47 17.8 47 20C47 22.2 45.2 24 43 24ZM43 18C41.9 18 41 18.9 41 20C41 21.1 41.9 22 43 22C44.1 22 45 21.1 45 20C45 18.9 44.1 18 43 18Z" fill="#9DA0AC"/>
<path d="M13 24C10.8 24 9 22.2 9 20C9 17.8 10.8 16 13 16C15.2 16 17 17.8 17 20C17 22.2 15.2 24 13 24ZM13 18C11.9 18 11 18.9 11 20C11 21.1 11.9 22 13 22C14.1 22 15 21.1 15 20C15 18.9 14.1 18 13 18Z" fill="#9DA0AC"/>
<path d="M49 21H46C45.4 21 45 20.6 45 20C45 19.4 45.4 19 46 19H49V13.9C49 13.5 48.8 13.2 48.5 13L46.2 11.8C46 11.7 45.9 11.5 45.8 11.3L43.9 7.10001C43.6 6.40001 42.9 5.89999 42.1 5.89999H36C35.4 5.89999 35 6.29999 35 6.89999V15.9C35 16.5 34.6 16.9 34 16.9H30C29.4 16.9 29 16.5 29 15.9C29 15.3 29.4 14.9 30 14.9H33V6.89999C33 5.19999 34.3 3.89999 36 3.89999H42.1C43.7 3.89999 45.1 4.80002 45.7 6.30002L47.4 10.2L49.4 11.3C50.4 11.8 51 12.8 51 13.9V19C51 20.1 50.1 21 49 21Z" fill="#9DA0AC"/>
<path d="M40 21H16C15.4 21 15 20.6 15 20C15 19.4 15.4 19 16 19H40C40.6 19 41 19.4 41 20C41 20.6 40.6 21 40 21Z" fill="#9DA0AC"/>
<path d="M30 17C29.4 17 29 16.6 29 16V12H2V14C2 14.6 2.4 15 3 15H26C26.6 15 27 15.4 27 16C27 16.6 26.6 17 26 17H3C1.3 17 0 15.7 0 14V11C0 10.4 0.4 10 1 10H30C30.6 10 31 10.4 31 11V16C31 16.5 30.6 17 30 17Z" fill="#9DA0AC"/>
<path d="M50 17H49C48.4 17 48 16.6 48 16C48 15.4 48.4 15 49 15H50C50.6 15 51 15.4 51 16C51 16.6 50.6 17 50 17Z" fill="#9DA0AC"/>
<path d="M48.5 12H41C40.4 12 40 11.6 40 11V9C40 8.4 40.4 8 41 8H45L48.5 12Z" fill="#9DA0AC"/>
<path d="M29 12H2C1.4 12 1 11.6 1 11V1C1 0.7 1.09999 0.500018 1.29999 0.300018C1.49999 0.100018 1.80001 0 2.10001 0C2.20001 0 8.1 0.5 10 0.5C11.9 0.5 15.8 0 15.9 0C16 0 16 0 16.1 0C16.1 0 21.1 0.5 23 0.5C24.9 0.5 28.8 0 28.9 0C29.2 0 29.5 0.100012 29.7 0.200012C29.9 0.400012 30 0.699994 30 0.899994V10.9C30 11.5 29.6 12 29 12ZM3 10H28V2.10001C26.6 2.30001 24.4 2.5 23 2.5C21.1 2.5 16.8 2.1 16 2C15.3 2.1 11.9 2.5 10 2.5C8.5 2.5 4.8 2.20001 3 2.10001V10Z" fill="#9DA0AC"/>
<path d="M16 8C15.4 8 15 7.6 15 7V1C15 0.4 15.4 0 16 0C16.6 0 17 0.4 17 1V7C17 7.5 16.6 8 16 8Z" fill="#9DA0AC"/>
</svg>
