<svg width="20" height="14" viewBox="0 0 20 14" fill="none" xmlns="http://www.w3.org/2000/svg" xmlns:xlink="http://www.w3.org/1999/xlink">
    <rect width="20" height="14" rx="1" fill="url(#pattern0)"/>
    <defs>
        <pattern id="pattern0" patternContentUnits="objectBoundingBox" width="1" height="1">
            <use xlink:href="#image0" transform="scale(0.01 0.0149254)"/>
        </pattern>
        <image id="image0" width="100" height="67" xlink:href="data:image/png;base64,iVBORw0KGgoAAAANSUhEUgAAAGQAAABDBAMAAACYZb3pAAAAFVBMVEXVKx7///8AOaZUNHFkh8nVKx7///90yNRsAAAAAnRSTlPU1BJ52+4AAAA3SURBVEjH7csxAQAgEMSws4AFLGABC1jAv4TX0PmaPVlYPmaxWErLxbIxi8VSWg6Wh1ksltLCDf2spTBQVKLHAAAAAElFTkSuQmCC"/>
    </defs>
</svg>
